\relax 
\providecommand\hyper@newdestlabel[2]{}
\providecommand\HyperFirstAtBeginDocument{\AtBeginDocument}
\HyperFirstAtBeginDocument{\ifx\hyper@anchor\@undefined
\global\let\oldcontentsline\contentsline
\gdef\contentsline#1#2#3#4{\oldcontentsline{#1}{#2}{#3}}
\global\let\oldnewlabel\newlabel
\gdef\newlabel#1#2{\newlabelxx{#1}#2}
\gdef\newlabelxx#1#2#3#4#5#6{\oldnewlabel{#1}{{#2}{#3}}}
\AtEndDocument{\ifx\hyper@anchor\@undefined
\let\contentsline\oldcontentsline
\let\newlabel\oldnewlabel
\fi}
\fi}
\global\let\hyper@last\relax 
\gdef\HyperFirstAtBeginDocument#1{#1}
\providecommand\HyField@AuxAddToFields[1]{}
\providecommand\HyField@AuxAddToCoFields[2]{}
\bbl@cs{beforestart}
\catcode `"\active 
\babel@aux{ngerman}{}
\@writefile{nav}{\headcommand {\slideentry {0}{0}{1}{1/1}{}{0}}}
\@writefile{nav}{\headcommand {\beamer@framepages {1}{1}}}
\@writefile{nav}{\headcommand {\slideentry {0}{0}{2}{2/2}{}{0}}}
\@writefile{nav}{\headcommand {\beamer@framepages {2}{2}}}
\@writefile{toc}{\beamer@sectionintoc {1}{Einleitung}{3}{0}{1}}
\@writefile{nav}{\headcommand {\beamer@sectionpages {1}{2}}}
\@writefile{nav}{\headcommand {\beamer@subsectionpages {1}{2}}}
\@writefile{nav}{\headcommand {\sectionentry {1}{Einleitung}{3}{Einleitung}{0}}}
\@writefile{toc}{\beamer@subsectionintoc {1}{1}{Firmenportrait}{3}{0}{1}}
\@writefile{nav}{\headcommand {\beamer@subsectionpages {3}{2}}}
\@writefile{nav}{\headcommand {\beamer@subsectionentry {0}{1}{1}{3}{Firmenportrait}}}
\newlabel{fig:logo}{{1}{3}{Firmenportrait}{Doc-Start}{}}
\@writefile{snm}{\beamer@slide {fig:logo}{3}}
\@writefile{nav}{\headcommand {\slideentry {1}{1}{1}{3/3}{Firmenportrait}{0}}}
\@writefile{nav}{\headcommand {\beamer@framepages {3}{3}}}
\@writefile{toc}{\beamer@subsectionintoc {1}{2}{Aufgabenstellung \& Arbeitsgebiet}{4}{0}{1}}
\@writefile{nav}{\headcommand {\beamer@subsectionpages {3}{3}}}
\@writefile{nav}{\headcommand {\beamer@subsectionentry {0}{1}{2}{4}{Aufgabenstellung \& Arbeitsgebiet}}}
\@writefile{nav}{\headcommand {\slideentry {1}{2}{1}{4/6}{Aufgabenstellung \& Arbeitsgebiet}{0}}}
\@writefile{nav}{\headcommand {\beamer@framepages {4}{6}}}
\@writefile{toc}{\beamer@sectionintoc {2}{SEO}{7}{0}{2}}
\@writefile{nav}{\headcommand {\beamer@sectionpages {3}{6}}}
\@writefile{nav}{\headcommand {\beamer@subsectionpages {4}{6}}}
\@writefile{nav}{\headcommand {\sectionentry {2}{SEO}{7}{SEO}{0}}}
\@writefile{toc}{\beamer@subsectionintoc {2}{1}{Problemstellung}{7}{0}{2}}
\@writefile{nav}{\headcommand {\beamer@subsectionpages {7}{6}}}
\@writefile{nav}{\headcommand {\beamer@subsectionentry {0}{2}{1}{7}{Problemstellung}}}
\@writefile{nav}{\headcommand {\slideentry {2}{1}{1}{7/7}{Problemstellung}{0}}}
\@writefile{nav}{\headcommand {\beamer@framepages {7}{7}}}
\@writefile{toc}{\beamer@subsectionintoc {2}{2}{Werkzeuge}{8}{0}{2}}
\@writefile{nav}{\headcommand {\beamer@subsectionpages {7}{7}}}
\@writefile{nav}{\headcommand {\beamer@subsectionentry {0}{2}{2}{8}{Werkzeuge}}}
\@writefile{nav}{\headcommand {\slideentry {2}{2}{1}{8/8}{Werkzeuge}{0}}}
\@writefile{nav}{\headcommand {\beamer@framepages {8}{8}}}
\@writefile{nav}{\headcommand {\slideentry {2}{2}{2}{9/9}{Werkzeuge}{0}}}
\@writefile{nav}{\headcommand {\beamer@framepages {9}{9}}}
\@writefile{nav}{\headcommand {\slideentry {2}{2}{3}{10/10}{Werkzeuge}{0}}}
\@writefile{nav}{\headcommand {\beamer@framepages {10}{10}}}
\@writefile{nav}{\headcommand {\slideentry {2}{2}{4}{11/11}{Werkzeuge}{0}}}
\@writefile{nav}{\headcommand {\beamer@framepages {11}{11}}}
\@writefile{toc}{\beamer@subsectionintoc {2}{3}{Vorgehensweise}{12}{0}{2}}
\@writefile{nav}{\headcommand {\beamer@subsectionpages {8}{11}}}
\@writefile{nav}{\headcommand {\beamer@subsectionentry {0}{2}{3}{12}{Vorgehensweise}}}
\@writefile{nav}{\headcommand {\slideentry {2}{3}{1}{12/12}{Vorgehensweise}{0}}}
\@writefile{nav}{\headcommand {\beamer@framepages {12}{12}}}
\@writefile{toc}{\beamer@sectionintoc {3}{Funktionelle Erweiterung}{13}{0}{3}}
\@writefile{nav}{\headcommand {\beamer@sectionpages {7}{12}}}
\@writefile{nav}{\headcommand {\beamer@subsectionpages {12}{12}}}
\@writefile{nav}{\headcommand {\sectionentry {3}{Funktionelle Erweiterung}{13}{Funktionelle Erweiterung}{0}}}
\@writefile{toc}{\beamer@subsectionintoc {3}{1}{Produkt-Finder}{13}{0}{3}}
\@writefile{nav}{\headcommand {\beamer@subsectionpages {13}{12}}}
\@writefile{nav}{\headcommand {\beamer@subsectionentry {0}{3}{1}{13}{Produkt-Finder}}}
\@writefile{nav}{\headcommand {\slideentry {3}{1}{1}{13/13}{Produkt-Finder}{0}}}
\@writefile{nav}{\headcommand {\beamer@framepages {13}{13}}}
\@writefile{nav}{\headcommand {\slideentry {3}{1}{2}{14/14}{Produkt-Finder}{0}}}
\@writefile{nav}{\headcommand {\beamer@framepages {14}{14}}}
\@writefile{nav}{\headcommand {\slideentry {3}{1}{3}{15/15}{Produkt-Finder}{0}}}
\@writefile{nav}{\headcommand {\beamer@framepages {15}{15}}}
\newlabel{fig:pf}{{2}{16}{Produkt-Finder}{Doc-Start}{}}
\@writefile{snm}{\beamer@slide {fig:pf}{16}}
\@writefile{nav}{\headcommand {\slideentry {3}{1}{4}{16/16}{Produkt-Finder}{0}}}
\@writefile{nav}{\headcommand {\beamer@framepages {16}{16}}}
\@writefile{nav}{\headcommand {\slideentry {3}{1}{5}{17/17}{Produkt-Finder}{0}}}
\@writefile{nav}{\headcommand {\beamer@framepages {17}{17}}}
\@writefile{toc}{\beamer@subsectionintoc {3}{2}{Flächenrechner}{18}{0}{3}}
\@writefile{nav}{\headcommand {\beamer@subsectionpages {13}{17}}}
\@writefile{nav}{\headcommand {\beamer@subsectionentry {0}{3}{2}{18}{Flächenrechner}}}
\@writefile{nav}{\headcommand {\slideentry {3}{2}{1}{18/18}{Flächenrechner}{0}}}
\@writefile{nav}{\headcommand {\beamer@framepages {18}{18}}}
\newlabel{fig:fr-1}{{3}{19}{Flächenrechner}{Doc-Start}{}}
\@writefile{snm}{\beamer@slide {fig:fr-1}{19}}
\@writefile{nav}{\headcommand {\slideentry {3}{2}{2}{19/19}{Flächenrechner}{0}}}
\@writefile{nav}{\headcommand {\beamer@framepages {19}{19}}}
\newlabel{fig:fr-2}{{4}{20}{Flächenrechner}{Doc-Start}{}}
\@writefile{snm}{\beamer@slide {fig:fr-2}{20}}
\@writefile{nav}{\headcommand {\slideentry {3}{2}{3}{20/20}{Flächenrechner}{0}}}
\@writefile{nav}{\headcommand {\beamer@framepages {20}{20}}}
\@writefile{toc}{\beamer@sectionintoc {4}{Weitere Aufgaben}{21}{0}{4}}
\@writefile{nav}{\headcommand {\beamer@sectionpages {13}{20}}}
\@writefile{nav}{\headcommand {\beamer@subsectionpages {18}{20}}}
\@writefile{nav}{\headcommand {\sectionentry {4}{Weitere Aufgaben}{21}{Weitere Aufgaben}{0}}}
\@writefile{toc}{\beamer@subsectionintoc {4}{1}{UX-Optimierungen}{21}{0}{4}}
\@writefile{nav}{\headcommand {\beamer@subsectionpages {21}{20}}}
\@writefile{nav}{\headcommand {\beamer@subsectionentry {0}{4}{1}{21}{UX-Optimierungen}}}
\@writefile{nav}{\headcommand {\slideentry {4}{1}{1}{21/21}{UX-Optimierungen}{0}}}
\@writefile{nav}{\headcommand {\beamer@framepages {21}{21}}}
\@writefile{toc}{\beamer@subsectionintoc {4}{2}{Automatisierte Preisanpassung}{22}{0}{4}}
\@writefile{nav}{\headcommand {\beamer@subsectionpages {21}{21}}}
\@writefile{nav}{\headcommand {\beamer@subsectionentry {0}{4}{2}{22}{Automatisierte Preisanpassung}}}
\@writefile{nav}{\headcommand {\slideentry {4}{2}{1}{22/22}{Automatisierte Preisanpassung}{0}}}
\@writefile{nav}{\headcommand {\beamer@framepages {22}{22}}}
\@writefile{toc}{\beamer@sectionintoc {5}{Ergebnisse}{23}{0}{5}}
\@writefile{nav}{\headcommand {\beamer@sectionpages {21}{22}}}
\@writefile{nav}{\headcommand {\beamer@subsectionpages {22}{22}}}
\@writefile{nav}{\headcommand {\sectionentry {5}{Ergebnisse}{23}{Ergebnisse}{0}}}
\@writefile{nav}{\headcommand {\slideentry {5}{0}{1}{23/23}{}{0}}}
\@writefile{nav}{\headcommand {\beamer@framepages {23}{23}}}
\@writefile{toc}{\beamer@sectionintoc {6}{Zusammenfassung}{24}{0}{6}}
\@writefile{nav}{\headcommand {\beamer@sectionpages {23}{23}}}
\@writefile{nav}{\headcommand {\beamer@subsectionpages {23}{23}}}
\@writefile{nav}{\headcommand {\sectionentry {6}{Zusammenfassung}{24}{Zusammenfassung}{0}}}
\@writefile{nav}{\headcommand {\slideentry {6}{0}{1}{24/24}{}{0}}}
\@writefile{nav}{\headcommand {\beamer@framepages {24}{24}}}
\@writefile{nav}{\headcommand {\beamer@partpages {1}{24}}}
\@writefile{nav}{\headcommand {\beamer@subsectionpages {24}{24}}}
\@writefile{nav}{\headcommand {\beamer@sectionpages {24}{24}}}
\@writefile{nav}{\headcommand {\beamer@documentpages {24}}}
\@writefile{nav}{\headcommand {\gdef \inserttotalframenumber {22}}}
